…
```
## New names:
## * `` -> ...1
## * `` -> ...2
## * `` -> ...3
## * `` -> ...4
## * `` -> ...5
## * ...
```

```
## # A tibble: 688 x 7
##     ...1 ...2                   ...5  ...8  ...11 ...14 ...17
##    <dbl> <chr>                  <chr> <chr> <chr> <chr> <chr>
##  1     1 Computer Science       <NA>  A     <NA>  <NA>  <NA> 
##  2     2 Business Analytics     <NA>  <NA>  B+    A     <NA> 
##  3     3 Electrical Engineering A     <NA>  <NA>  <NA>  <NA> 
##  4     4 Computer Science       <NA>  B-    A-    A     B    
##  5     5 Applied Mathematics    A-    A     <NA>  <NA>  <NA> 
##  6     6 Psychology             <NA>  <NA>  A-    A     <NA> 
##  7     7 Software Engineering   <NA>  B-    <NA>  <NA>  <NA> 
##  8     8 Psychology             <NA>  <NA>  B-    <NA>  <NA> 
##  9     9 Biochemistry           A-    <NA>  <NA>  <NA>  <NA> 
## 10    10 Computer Science       <NA>  C     <NA>  <NA>  <NA> 
## # ... with 678 more rows
```

```
## # A tibble: 3,440 x 4
##     ...1 ...2               Class Grades
##    <dbl> <chr>              <chr> <chr> 
##  1     1 Computer Science   ...5  <NA>  
##  2     1 Computer Science   ...8  A     
##  3     1 Computer Science   ...11 <NA>  
##  4     1 Computer Science   ...14 <NA>  
##  5     1 Computer Science   ...17 <NA>  
##  6     2 Business Analytics ...5  <NA>  
##  7     2 Business Analytics ...8  <NA>  
##  8     2 Business Analytics ...11 B+    
##  9     2 Business Analytics ...14 A     
## 10     2 Business Analytics ...17 <NA>  
## # ... with 3,430 more rows
```

```
## # A tibble: 876 x 4
##     ...1 ...2                   Class Grades
##    <dbl> <chr>                  <chr> <chr> 
##  1     1 Computer Science       ...8  A     
##  2     2 Business Analytics     ...11 B+    
##  3     2 Business Analytics     ...14 A     
##  4     3 Electrical Engineering ...5  A     
##  5     4 Computer Science       ...8  B-    
##  6     4 Computer Science       ...11 A-    
##  7     4 Computer Science       ...14 A     
##  8     4 Computer Science       ...17 B     
##  9     5 Applied Mathematics    ...5  A-    
## 10     5 Applied Mathematics    ...8  A     
## # ... with 866 more rows
```
…
